wave.vcd
$date
	Mon Jun 22 20:11:23 2026
$end
$version
	Icarus Verilog
$end
$timescale
	1ps
$end
$scope module tb_smart_home_top $end
$var wire 1 ! light $end
$var wire 1 " fan $end
$var wire 1 # alarm $end
$var wire 1 $ ac $end
$var reg 1 % clk $end
$var reg 1 & door_open $end
$var reg 1 ' light_sensor $end
$var reg 1 ( manual_override $end
$var reg 1 ) motion $end
$var reg 1 * reset $end
$var reg 1 + temp_high $end
$scope module uut $end
$var wire 1 % clk $end
$var wire 1 & door_open $end
$var wire 1 ' light_sensor $end
$var wire 1 ( manual_override $end
$var wire 1 ) motion $end
$var wire 1 * reset $end
$var wire 1 + temp_high $end
$var wire 1 , timer_done $end
$var wire 3 - state [2:0] $end
$var wire 1 ! light $end
$var wire 1 " fan $end
$var wire 1 # alarm $end
$var wire 1 $ ac $end
$scope module u_fsm $end
$var wire 1 % clk $end
$var wire 1 & door_open $end
$var wire 1 ( manual_override $end
$var wire 1 ) motion $end
$var wire 1 * reset $end
$var wire 3 . state [2:0] $end
$var wire 1 , timer_done $end
$var reg 3 / current_state [2:0] $end
$var reg 3 0 next_state [2:0] $end
$upscope $end
$scope module u_out $end
$var wire 1 ' light_sensor $end
$var wire 1 ) motion $end
$var wire 3 1 state [2:0] $end
$var wire 1 + temp_high $end
$var reg 1 $ ac $end
$var reg 1 # alarm $end
$var reg 1 " fan $end
$var reg 1 ! light $end
$upscope $end
$scope module u_timer $end
$var wire 1 % clk $end
$var wire 1 ) motion $end
$var wire 1 * reset $end
$var parameter 32 2 COUNT_MAX $end
$var reg 5 3 count [4:0] $end
$var reg 1 , timer_done $end
$upscope $end
$upscope $end
$upscope $end
$enddefinitions $end
$comment Show the parameter values. $end
$dumpall
b1010 2
$end
#0
$dumpvars
b0 3
b0 1
b0 0
b0 /
b0 .
b0 -
0,
0+
1*
0)
0(
1'
0&
0%
0$
0#
0"
0!
$end
#5000
1%
#10000
0%
0*
#15000
b1 3
1%
#20000
b1 0
0%
0'
1)
#25000
1!
b0 3
b1 -
b1 .
b1 1
b1 /
1%
#30000
0%
#35000
1%
#40000
1$
1"
1!
0%
1+
#45000
1%
#50000
0%
#55000
1%
#60000
1$
1"
0!
0%
0)
#65000
b1 3
1%
#70000
0%
#75000
b10 3
1%
#80000
0%
#85000
b11 3
1%
#90000
0%
#95000
b100 3
1%
#100000
0%
#105000
b101 3
1%
#110000
0%
#115000
b110 3
1%
#120000
0%
#125000
b111 3
1%
#130000
0%
#135000
b1000 3
1%
#140000
0%
#145000
b1001 3
1%
#150000
0%
#155000
b1010 3
1%
#160000
0%
#165000
b10 0
1,
1%
#170000
0%
#175000
0$
0"
b10 -
b10 .
b10 1
b10 /
1%
#180000
b11 0
0%
1&
#185000
1#
b11 -
b11 .
b11 1
b11 /
1%
#190000
0%
#195000
1%
#200000
b100 0
0%
1(
#205000
1$
1"
1!
0#
b100 -
b100 .
b100 1
b100 /
1%
#210000
0%
#215000
1%
#220000
b0 0
0%
0&
0(
#225000
0$
0"
0!
b0 -
b0 .
b0 1
b0 /
1%
